0 0.526000 0.341500 0.542667 0.415000
0 0.460625 0.496250 0.548750 0.597500
0 0.488000 0.389412 0.532000 0.562353
0 0.503000 0.414751 0.854000 0.802682
0 0.392000 0.261000 0.428000 0.434000
0 0.222000 0.779000 0.204000 0.206000
0 0.556000 0.785000 0.200000 0.210000
0 0.849000 0.220000 0.214000 0.216000
0 0.845000 0.536000 0.198000 0.212000
0 0.482301 0.418367 0.587021 0.632653
0 0.651000 0.369732 0.618000 0.593870
0 0.462891 0.445748 0.402344 0.686217
0 0.468000 0.439000 0.580000 0.650000
0 0.493000 0.462000 0.542000 0.536000
0 0.500000 0.387333 0.996441 0.726667
0 0.520625 0.421250 0.586250 0.577500
0 0.497000 0.319000 0.538000 0.538000
0 0.508271 0.472222 0.625564 0.811111
0 0.476000 0.552000 0.581333 0.573333
0 0.459635 0.467448 0.506771 0.527604
0 0.173000 0.403747 0.258000 0.171835
0 0.393000 0.416021 0.262000 0.173127
0 0.623000 0.419897 0.250000 0.170543
0 0.844000 0.419251 0.256000 0.166667
0 0.326000 0.957364 0.136000 0.085271
0 0.517692 0.373770 0.736923 0.581421
0 0.298387 0.501613 0.461290 0.461290
0 0.714516 0.475806 0.429032 0.429032
0 0.460013 0.408518 0.918683 0.725302
0 0.503000 0.348000 0.606000 0.672000
0 0.513000 0.489505 0.678000 0.502249
0 0.294000 0.271000 0.412000 0.370000
0 0.727000 0.309000 0.378000 0.370000
0 0.502857 0.375410 0.531429 0.639344
0 0.461875 0.310000 0.538750 0.540000
0 0.549098 0.429429 0.372745 0.564565
0 0.282000 0.403974 0.420000 0.748344
0 0.370000 0.545597 0.184000 0.336478
0 0.419333 0.460894 0.548000 0.746741
0 0.344000 0.568829 0.500000 0.419304
0 0.762000 0.487342 0.308000 0.262658
0 0.303333 0.270000 0.454667 0.462667
0 0.739333 0.711333 0.404000 0.436000
0 0.556250 0.330000 0.642500 0.650000
0 0.509028 0.346528 0.609722 0.659722
0 0.503000 0.463000 0.618000 0.634000
0 0.157143 0.417143 0.297143 0.294286
0 0.497857 0.418571 0.304286 0.300000
0 0.835714 0.416429 0.308571 0.301429
0 0.307552 0.716667 0.344271 0.311458
0 0.710938 0.301042 0.320833 0.341667
0 0.369000 0.756208 0.206000 0.261851
0 0.609000 0.485327 0.210000 0.248307
0 0.850000 0.490971 0.224000 0.255079
0 0.317986 0.278481 0.443165 0.412658
0 0.531000 0.553000 0.586000 0.582000
0 0.215198 0.468935 0.233716 0.275148
0 0.671775 0.404586 0.490421 0.596154
0 0.513750 0.401250 0.690000 0.760000
0 0.240000 0.332500 0.420000 0.450000
0 0.760000 0.441250 0.445000 0.462500
0 0.311000 0.513265 0.346000 0.402041
0 0.615000 0.573469 0.322000 0.404082
0 0.649000 0.525000 0.618000 0.630000
0 0.290000 0.503000 0.280000 0.274000
0 0.493125 0.446875 0.626250 0.618750
0 0.509000 0.273000 0.394000 0.510000
0 0.512500 0.499167 0.568333 0.631667
0 0.486364 0.461364 0.718182 0.722727
0 0.503000 0.408000 0.570000 0.584000
0 0.495455 0.288636 0.400000 0.404545
0 0.370000 0.574000 0.340000 0.424000
0 0.282000 0.469000 0.460000 0.466000
0 0.702000 0.368000 0.352000 0.468000
0 0.455000 0.445000 0.654000 0.714000
0 0.300000 0.483000 0.288000 0.374000
0 0.409000 0.463000 0.458000 0.458000
0 0.487000 0.339000 0.566000 0.614000
0 0.459726 0.758359 0.338906 0.343465
0 0.774316 0.329787 0.348024 0.349544
0 0.304000 0.573000 0.332000 0.542000
0 0.254667 0.600000 0.290667 0.420000
0 0.691333 0.629000 0.302667 0.422000
0 0.237000 0.711000 0.202000 0.206000
0 0.453000 0.709500 0.200000 0.201000
0 0.663000 0.706500 0.200000 0.199000
0 0.875500 0.704000 0.203000 0.198000
0 0.488636 0.400000 0.450000 0.500000
0 0.242401 0.368541 0.357143 0.381459
0 0.763678 0.511398 0.348024 0.335866
0 0.468421 0.465000 0.404511 0.530000
0 0.414097 0.649805 0.340675 0.610895
0 0.436170 0.437215 0.249240 0.390411
0 0.413636 0.284091 0.400000 0.450000
0 0.465447 0.431402 0.760163 0.564024
0 0.472000 0.403500 0.784000 0.583000
0 0.718880 0.484914 0.524896 0.530172
0 0.422199 0.482759 0.392116 0.487069
0 0.198133 0.465517 0.367220 0.426724
0 0.511333 0.445333 0.764000 0.752000
0 0.696000 0.445026 0.500000 0.460733
0 0.545455 0.565909 0.663636 0.659091
0 0.243000 0.602020 0.302000 0.315152
0 0.773000 0.497980 0.414000 0.414141
0 0.391000 0.551000 0.482000 0.454000
0 0.538000 0.244000 0.388000 0.404000
0 0.211000 0.530000 0.198000 0.232000
0 0.491000 0.530000 0.194000 0.228000
0 0.763000 0.521000 0.198000 0.234000
0 0.244000 0.417665 0.232000 0.338323
0 0.523000 0.407186 0.226000 0.329341
0 0.778000 0.393713 0.220000 0.344311
0 0.277419 0.391935 0.432258 0.454839
0 0.737097 0.396774 0.435484 0.451613
0 0.501000 0.426000 0.754000 0.772000
0 0.362000 0.470015 0.262000 0.385307
0 0.636000 0.325337 0.254000 0.389805
0 0.164000 0.135506 0.256000 0.222985
0 0.363000 0.539451 0.214000 0.180103
0 0.291000 0.734134 0.242000 0.198971
0 0.535000 0.649228 0.230000 0.197256
0 0.710000 0.557461 0.212000 0.181818
0 0.801000 0.713551 0.230000 0.212693
0 0.547000 0.842196 0.274000 0.212693
0 0.644000 0.644000 0.416000 0.420000
0 0.346000 0.486111 0.480000 0.587963
0 0.699000 0.445437 0.482000 0.442460
0 0.604000 0.340000 0.604000 0.660000
0 0.469000 0.561000 0.394000 0.406000
0 0.159000 0.324000 0.282000 0.280000
0 0.520000 0.485000 0.328000 0.318000
0 0.839000 0.276000 0.274000 0.264000
0 0.484091 0.481818 0.504545 0.500000
0 0.509000 0.542240 0.446000 0.459725
0 0.509000 0.112549 0.446000 0.222510
0 0.177000 0.796248 0.182000 0.115136
0 0.476000 0.720569 0.172000 0.108668
0 0.819000 0.630660 0.126000 0.081501
0 0.422500 0.393125 0.730000 0.753750
0 0.437000 0.501006 0.286000 0.305835
0 0.776000 0.351107 0.284000 0.291751
0 0.541000 0.848089 0.310000 0.303823
0 0.662000 0.369000 0.412000 0.562000
0 0.178000 0.229000 0.156000 0.190000
0 0.250000 0.398750 0.270000 0.267500
0 0.450000 0.223750 0.245000 0.247500
0 0.697500 0.422500 0.265000 0.275000
0 0.739000 0.228000 0.234000 0.228000
0 0.577000 0.389000 0.502000 0.502000
0 0.400000 0.412000 0.484000 0.496000
0 0.691000 0.319000 0.566000 0.570000
0 0.228000 0.435000 0.416000 0.534000
0 0.379000 0.493000 0.706000 0.674000
0 0.424684 0.388889 0.467089 0.609319
0 0.490104 0.427604 0.701042 0.794792
0 0.514000 0.531858 0.308000 0.281416
0 0.529000 0.421158 0.722000 0.722555
0 0.474615 0.458525 0.586154 0.579109
0 0.490000 0.422572 0.384000 0.477690
0 0.484000 0.453901 0.552000 0.587234
0 0.677914 0.179545 0.386503 0.268182
0 0.745399 0.718182 0.386503 0.336364
0 0.536979 0.369097 0.570833 0.736806
0 0.509000 0.333133 0.798000 0.483794
0 0.186000 0.274000 0.268000 0.272000
0 0.474000 0.444000 0.320000 0.304000
0 0.792000 0.288000 0.304000 0.288000
0 0.703448 0.303448 0.406897 0.496552
0 0.495333 0.441333 0.788000 0.829333
0 0.517500 0.474375 0.615000 0.621250
0 0.393750 0.605625 0.732500 0.726250
0 0.541875 0.212500 0.503750 0.422500
0 0.524667 0.490667 0.772000 0.768000
0 0.689000 0.375399 0.342000 0.597444
0 0.412500 0.442396 0.688333 0.580645
0 0.506250 0.347500 0.645000 0.590000
0 0.505208 0.392708 0.479167 0.472917
0 0.527000 0.373333 0.534000 0.714667
0 0.488750 0.501875 0.605000 0.628750
0 0.630000 0.520000 0.692000 0.741053
0 0.449580 0.599451 0.602241 0.493407
0 0.316000 0.620087 0.468000 0.502183
0 0.552104 0.575075 0.418838 0.627628
0 0.770492 0.376797 0.393443 0.527721
0 0.371250 0.409006 0.487500 0.446529
0 0.432031 0.346875 0.517188 0.662500
0 0.494531 0.464062 0.498437 0.453125
0 0.732000 0.525886 0.360000 0.485014
0 0.454427 0.466146 0.525521 0.530208
0 0.501875 0.419375 0.596250 0.593750
0 0.507000 0.517118 0.650000 0.503566
0 0.519375 0.511693 0.636250 0.586860
0 0.481250 0.371250 0.757500 0.677500
0 0.481238 0.441250 0.699812 0.472500
0 0.565130 0.585586 0.420842 0.636637
0 0.313920 0.445417 0.373295 0.687500
0 0.429545 0.409091 0.477273 0.645455
0 0.507000 0.378667 0.498000 0.666667
0 0.502667 0.380000 0.360000 0.354667
0 0.587000 0.288820 0.518000 0.453416
0 0.525050 0.463964 0.432866 0.681682
0 0.483333 0.488667 0.617333 0.585333
0 0.492857 0.558571 0.602857 0.568571
0 0.616964 0.489286 0.716071 0.725000
0 0.225000 0.284000 0.418000 0.400000
0 0.722000 0.347000 0.356000 0.358000
0 0.065312 0.502727 0.129375 0.250909
0 0.070312 0.233182 0.139375 0.340909
0 0.191875 0.443182 0.140000 0.211818
0 0.342500 0.416364 0.145000 0.209091
0 0.488438 0.417273 0.165625 0.249091
0 0.640938 0.436818 0.156875 0.217273
0 0.795625 0.463636 0.161250 0.192727
0 0.953125 0.447273 0.093750 0.225455
0 0.263437 0.815909 0.204375 0.302727
0 0.469687 0.808636 0.191875 0.262727
0 0.641563 0.773182 0.160625 0.230000
0 0.784062 0.785000 0.131875 0.190000
0 0.918125 0.862727 0.117500 0.138182
0 0.311333 0.547393 0.414667 0.715640
0 0.258333 0.471667 0.176667 0.230000
0 0.520000 0.473333 0.180000 0.233333
0 0.786667 0.483333 0.186667 0.246667
0 0.589333 0.452885 0.394667 0.594231
0 0.503333 0.560000 0.540000 0.533333
0 0.668337 0.280781 0.635271 0.525526
0 0.213000 0.382000 0.386000 0.384000
0 0.793000 0.380000 0.382000 0.384000
0 0.361290 0.591935 0.135484 0.125806
0 0.679032 0.608065 0.106452 0.138710
0 0.511111 0.645299 0.502222 0.511600
0 0.176667 0.546398 0.351111 0.413919
0 0.179000 0.520000 0.246000 0.236000
0 0.390000 0.253000 0.252000 0.238000
0 0.549000 0.694000 0.246000 0.248000
0 0.790000 0.432000 0.224000 0.240000
0 0.559375 0.200000 0.393750 0.396875
0 0.418750 0.486875 0.565000 0.568750
0 0.485625 0.593478 0.316250 0.526087
0 0.108333 0.456897 0.162500 0.137931
0 0.828125 0.907328 0.152083 0.119253
0 0.187324 0.170625 0.216901 0.083750
0 0.400000 0.162500 0.191549 0.082500
0 0.619718 0.169375 0.185915 0.083750
0 0.846479 0.165000 0.205634 0.087500
0 0.411268 0.454375 0.664789 0.141250
0 0.652113 0.731250 0.673239 0.080000
0 0.446094 0.532031 0.482812 0.445312
0 0.299000 0.205000 0.334000 0.338000
0 0.662000 0.206000 0.336000 0.348000
0 0.284000 0.672000 0.360000 0.348000
0 0.685000 0.666000 0.362000 0.356000
0 0.386000 0.489489 0.380000 0.576577
0 0.256500 0.310000 0.291000 0.290000
0 0.525000 0.319500 0.304000 0.295000
0 0.782500 0.328500 0.315000 0.313000
0 0.495333 0.331333 0.553333 0.550667
0 0.183000 0.229730 0.210000 0.291892
0 0.513000 0.235135 0.222000 0.308108
0 0.819000 0.233784 0.222000 0.300000
0 0.200000 0.695946 0.204000 0.294595
0 0.122000 0.165505 0.166667 0.222997
0 0.128667 0.512195 0.190667 0.226481
0 0.122000 0.865854 0.204000 0.264808
0 0.386667 0.167247 0.176000 0.236934
0 0.371333 0.510453 0.190667 0.250871
0 0.372000 0.864983 0.202667 0.266551
0 0.624000 0.169861 0.176000 0.235192
0 0.629333 0.511324 0.194667 0.266551
0 0.879333 0.174216 0.174667 0.229965
0 0.883333 0.513066 0.201333 0.266551
0 0.312000 0.440780 0.372000 0.272864
0 0.684000 0.402549 0.344000 0.250375
0 0.407166 0.325000 0.723127 0.642500
0 0.502000 0.393602 0.268000 0.308762
0 0.466667 0.488636 0.872727 0.622727
0 0.578788 0.345455 0.648485 0.463636
0 0.525088 0.534180 0.760793 0.667969
0 0.458801 0.616168 0.720350 0.743207
0 0.507126 0.545410 0.757720 0.622070
0 0.508065 0.433871 0.616129 0.635484
0 0.281563 0.471299 0.258517 0.374622
0 0.443888 0.287009 0.214429 0.332326
0 0.540080 0.602719 0.270541 0.407855
0 0.788577 0.382175 0.246493 0.359517
0 0.499000 0.466267 0.742000 0.527736
0 0.494444 0.405671 0.448148 0.274306
0 0.684000 0.363229 0.300000 0.322870
0 0.487857 0.272143 0.321429 0.327143
0 0.216000 0.668182 0.272000 0.384848
0 0.729000 0.651515 0.266000 0.387879
0 0.515000 0.538651 0.638000 0.527961
0 0.659000 0.337010 0.238000 0.296569
0 0.197000 0.514360 0.330000 0.422977
0 0.716000 0.539164 0.348000 0.446475
0 0.451000 0.332084 0.338000 0.259370
0 0.442000 0.649175 0.316000 0.245877
0 0.498871 0.395522 0.812641 0.752665
0 0.310000 0.425373 0.372000 0.570149
0 0.711000 0.449254 0.302000 0.576119
0 0.443000 0.518000 0.462000 0.504000
0 0.267000 0.556352 0.406000 0.411885
0 0.217000 0.624000 0.366000 0.360000
0 0.448000 0.326000 0.328000 0.324000
0 0.798000 0.410000 0.340000 0.364000
0 0.215000 0.569000 0.282000 0.290000
0 0.405000 0.568000 0.250000 0.280000
0 0.598000 0.575000 0.244000 0.266000
0 0.797000 0.575000 0.242000 0.262000
0 0.631000 0.566456 0.202000 0.234177
0 0.270833 0.517361 0.397222 0.370833
0 0.342308 0.652842 0.370769 0.402458
0 0.693000 0.552192 0.374000 0.398747
0 0.549000 0.743529 0.218000 0.258824
0 0.525000 0.051765 0.294000 0.098824
0 0.775000 0.951765 0.186000 0.096471
0 0.500833 0.325833 0.535000 0.605000
0 0.481034 0.296205 0.568966 0.559406
0 0.352000 0.811203 0.260000 0.203320
0 0.523000 0.337483 0.178000 0.135546
0 0.660000 0.842324 0.156000 0.118949
0 0.137333 0.726307 0.178667 0.240196
0 0.351333 0.503018 0.246667 0.426559
0 0.428125 0.643182 0.325000 0.477273
0 0.704688 0.436364 0.253125 0.363636
0 0.504687 0.200000 0.221875 0.336364
0 0.174000 0.222680 0.180000 0.185567
0 0.502000 0.222680 0.176000 0.185567
0 0.831000 0.216495 0.198000 0.197938
0 0.171000 0.572165 0.194000 0.204124
0 0.479000 0.574227 0.182000 0.195876
0 0.818000 0.573196 0.188000 0.206186
0 0.262000 0.607955 0.342667 0.405303
0 0.437722 0.448667 0.871886 0.737333
0 0.268000 0.560000 0.468000 0.460000
0 0.763000 0.548000 0.442000 0.456000
0 0.281000 0.158311 0.330000 0.218997
0 0.676000 0.240106 0.396000 0.258575
0 0.515000 0.718338 0.526000 0.362797
0 0.501429 0.470000 0.631429 0.625714
0 0.624000 0.329000 0.472000 0.474000
0 0.765097 0.497585 0.455314 0.608696
0 0.719000 0.377000 0.530000 0.534000
0 0.332500 0.329077 0.282500 0.575639
0 0.250000 0.500000 0.476000 0.444976
0 0.745000 0.501595 0.474000 0.438596
0 0.309568 0.411667 0.311445 0.543333
0 0.214000 0.417376 0.176000 0.149915
0 0.491000 0.416525 0.174000 0.141397
0 0.767000 0.419080 0.166000 0.143101
0 0.295000 0.447686 0.270000 0.323944
0 0.649000 0.462777 0.318000 0.342052
0 0.531333 0.620370 0.398667 0.500000
0 0.627604 0.528906 0.327083 0.350521
0 0.209576 0.314269 0.183673 0.173349
0 0.407378 0.306604 0.189953 0.165094
0 0.606750 0.304835 0.186813 0.159198
0 0.802198 0.295991 0.178964 0.141509
0 0.179749 0.831958 0.092622 0.064858
0 0.305338 0.827830 0.095761 0.066038
0 0.417582 0.829599 0.087912 0.067217
0 0.250392 0.892689 0.102041 0.075472
0 0.352433 0.887972 0.092622 0.073113
0 0.535000 0.480000 0.498000 0.492000
0 0.375714 0.379286 0.434286 0.438571
0 0.274667 0.589888 0.360000 0.591760
0 0.618987 0.659953 0.511392 0.340442
0 0.262667 0.246541 0.157333 0.153459
0 0.739333 0.247170 0.150667 0.157233
0 0.250000 0.677987 0.153333 0.155975
0 0.732000 0.673585 0.160000 0.149686
0 0.593099 0.305176 0.361979 0.274414
0 0.284375 0.672500 0.516250 0.497500
0 0.725333 0.261176 0.450667 0.435294
0 0.332000 0.341286 0.248000 0.383817
0 0.498667 0.522822 0.277333 0.427386
0 0.672000 0.379668 0.248000 0.385892
0 0.525333 0.232365 0.226667 0.344398
0 0.506771 0.458984 0.398958 0.603906
0 0.499333 0.565379 0.404000 0.447251
0 0.194000 0.310000 0.328000 0.380000
0 0.791000 0.725000 0.362000 0.374000
0 0.750000 0.203125 0.359729 0.218750
0 0.275000 0.368351 0.362000 0.492021
0 0.646000 0.114362 0.408000 0.223404
0 0.135000 0.586118 0.194000 0.241645
0 0.729000 0.510283 0.178000 0.233933
0 0.245455 0.381818 0.445455 0.418182
0 0.713636 0.509091 0.536364 0.509091
0 0.539000 0.180077 0.322000 0.201788
0 0.791000 0.731801 0.242000 0.168582
0 0.589000 0.325364 0.390000 0.334719
0 0.333000 0.734927 0.370000 0.384615
0 0.224000 0.263758 0.224000 0.170470
0 0.703000 0.257047 0.230000 0.170470
0 0.311000 0.722148 0.298000 0.177181
0 0.699000 0.734899 0.310000 0.205369
0 0.121000 0.636471 0.142000 0.167059
0 0.449000 0.637647 0.130000 0.141176
0 0.775000 0.603529 0.122000 0.152941
0 0.778000 0.077647 0.208000 0.150588
0 0.253750 0.442500 0.440000 0.435000
0 0.763125 0.398125 0.416250 0.378750
0 0.526596 0.509091 0.315603 0.418182
0 0.480000 0.498498 0.300000 0.498498
0 0.933000 0.321747 0.090000 0.137255
0 0.163000 0.758467 0.106000 0.098039
0 0.483000 0.754902 0.086000 0.080214
0 0.815000 0.758467 0.106000 0.098039
0 0.281000 0.655096 0.406000 0.308715
0 0.789000 0.365583 0.406000 0.305761
0 0.259000 0.647105 0.258000 0.205008
0 0.771000 0.354460 0.250000 0.205008
0 0.674000 0.542000 0.452000 0.424000
0 0.268000 0.180628 0.384000 0.340314
0 0.764000 0.178010 0.380000 0.342059
0 0.268000 0.675393 0.368000 0.328098
0 0.577000 0.507881 0.306000 0.266200
0 0.251000 0.178824 0.238000 0.282353
0 0.763000 0.175294 0.230000 0.275294
0 0.525000 0.900000 0.234000 0.200000
0 0.507500 0.317500 0.358333 0.495000
0 0.102500 0.430000 0.201667 0.495000
0 0.494167 0.493333 0.581667 0.560000
0 0.471429 0.330000 0.491429 0.505714
0 0.306667 0.490000 0.405333 0.401333
0 0.409375 0.374375 0.613750 0.543750
0 0.473256 0.420930 0.639535 0.669767
0 0.486667 0.383889 0.813333 0.541111
0 0.499609 0.382812 0.485156 0.493750
0 0.498333 0.368750 0.456667 0.667500
0 0.503351 0.508667 0.513405 0.510667
0 0.481250 0.296250 0.632500 0.587500
0 0.173000 0.164596 0.274000 0.312629
0 0.585000 0.321946 0.490000 0.565217
0 0.472000 0.396256 0.856000 0.683307
0 0.525000 0.543333 0.663333 0.666667
0 0.546000 0.555000 0.532000 0.546000
0 0.573000 0.509000 0.722000 0.730000
0 0.181000 0.236000 0.358000 0.468000
0 0.485000 0.425000 0.526000 0.534000
0 0.478333 0.396667 0.483333 0.500000
0 0.546000 0.565491 0.476000 0.556675
0 0.517000 0.353175 0.662000 0.654762
0 0.487000 0.365571 0.718000 0.704062
0 0.230000 0.520000 0.326667 0.393333
0 0.675000 0.268333 0.483333 0.490000
0 0.517000 0.462810 0.474000 0.661157
0 0.367000 0.429000 0.486000 0.514000
0 0.359000 0.520362 0.378000 0.429864
0 0.354000 0.448905 0.516000 0.571776
0 0.517000 0.386000 0.722000 0.684000
0 0.781563 0.428969 0.388778 0.545961
0 0.734000 0.612864 0.348000 0.468447
0 0.301667 0.350962 0.430000 0.634615
0 0.516000 0.275424 0.636000 0.364407
0 0.683000 0.850000 0.466000 0.300000
0 0.310000 0.376667 0.353333 0.380000
0 0.571667 0.323333 0.276667 0.320000
0 0.736667 0.276667 0.233333 0.266667
0 0.177000 0.260000 0.286000 0.284000
0 0.483000 0.354000 0.282000 0.276000
0 0.815000 0.242000 0.298000 0.284000
0 0.534000 0.380618 0.276000 0.592697
0 0.473000 0.361000 0.546000 0.590000
0 0.737000 0.331950 0.294000 0.302905
0 0.695000 0.602970 0.486000 0.493069
0 0.544000 0.488183 0.456000 0.329394
0 0.648000 0.531532 0.320000 0.510511
0 0.256000 0.319149 0.484000 0.335697
0 0.750000 0.224586 0.404000 0.269504
0 0.257000 0.742317 0.474000 0.397163
0 0.759000 0.777778 0.482000 0.330969
0 0.510000 0.268000 0.396000 0.508000
0 0.750000 0.627261 0.400000 0.275194
0 0.650000 0.431525 0.364000 0.188630
0 0.627000 0.967054 0.322000 0.065891
0 0.545000 0.378667 0.470000 0.576000
0 0.171000 0.139635 0.170000 0.085929
0 0.493000 0.142857 0.166000 0.090226
0 0.838000 0.141783 0.160000 0.085929
0 0.175000 0.326531 0.170000 0.092374
0 0.491000 0.320623 0.178000 0.095596
0 0.830000 0.323845 0.168000 0.089151
0 0.180000 0.552095 0.148000 0.077336
0 0.509000 0.544039 0.138000 0.078410
0 0.817000 0.542427 0.158000 0.081633
0 0.182000 0.718045 0.136000 0.080559
0 0.496000 0.735231 0.124000 0.067669
0 0.824000 0.721805 0.208000 0.103115
0 0.185000 0.881847 0.154000 0.083781
0 0.504000 0.903867 0.172000 0.093448
0 0.821000 0.882385 0.154000 0.080559
0 0.129000 0.562000 0.254000 0.408000
0 0.375000 0.241000 0.418000 0.410000
0 0.735000 0.523000 0.434000 0.430000
0 0.523333 0.340000 0.466667 0.473333
0 0.715000 0.618333 0.256667 0.243333
0 0.152000 0.221685 0.168000 0.120166
0 0.388000 0.223757 0.168000 0.118785
0 0.628000 0.226519 0.168000 0.118785
0 0.868000 0.227901 0.168000 0.121547
0 0.362000 0.810083 0.204000 0.147790
0 0.598000 0.738950 0.196000 0.135359
0 0.811000 0.814917 0.218000 0.157459
0 0.576000 0.864641 0.224000 0.154696
0 0.536000 0.267066 0.304000 0.191617
0 0.467000 0.824551 0.222000 0.128144
0 0.440299 0.235625 0.172708 0.091250
0 0.317697 0.393750 0.166311 0.100000
0 0.801706 0.313750 0.166311 0.090000
0 0.767591 0.718750 0.294243 0.125000
0 0.933902 0.597500 0.093817 0.070000
0 0.400000 0.328680 0.312000 0.403553
0 0.450000 0.501333 0.280000 0.384000
0 0.510000 0.308707 0.468000 0.316623
0 0.557000 0.757256 0.386000 0.261214
0 0.348000 0.358000 0.616000 0.636000
0 0.503000 0.580645 0.306000 0.387097
0 0.189000 0.733189 0.298000 0.329718
0 0.465000 0.458785 0.310000 0.336226
0 0.802000 0.262473 0.312000 0.338395
0 0.576823 0.165000 0.153646 0.080000
0 0.287760 0.671875 0.231771 0.108750
0 0.721354 0.740000 0.171875 0.105000
0 0.541935 0.504839 0.561290 0.629032
0 0.251000 0.326000 0.342000 0.356000
0 0.548000 0.519000 0.156000 0.158000
0 0.509000 0.476000 0.654000 0.708000
0 0.252372 0.433333 0.398482 0.686667
0 0.513000 0.352304 0.226000 0.308943
0 0.548000 0.441645 0.440000 0.602122
0 0.134000 0.523973 0.136000 0.157534
0 0.297000 0.807265 0.294000 0.157417
0 0.774000 0.303229 0.344000 0.174571
0 0.331000 0.390010 0.226000 0.112008
0 0.709000 0.225664 0.414000 0.281922
0 0.490000 0.520408 0.613333 0.619048
0 0.373684 0.652273 0.389474 0.504545
0 0.506452 0.435484 0.722581 0.761290
0 0.701250 0.425000 0.502500 0.505000
0 0.423000 0.396601 0.466000 0.611898
0 0.547000 0.380000 0.662000 0.652000
0 0.533000 0.451362 0.750000 0.498054
0 0.495000 0.442000 0.630000 0.636000
0 0.499000 0.313000 0.550000 0.530000
0 0.581000 0.539000 0.554000 0.590000
0 0.716000 0.488000 0.360000 0.328000
0 0.486667 0.386667 0.486667 0.493333
0 0.502000 0.541000 0.608000 0.594000
0 0.175000 0.506000 0.250000 0.248000
0 0.494000 0.447000 0.256000 0.230000
0 0.827000 0.508000 0.246000 0.248000
0 0.478906 0.548387 0.557813 0.651952
0 0.289000 0.257000 0.370000 0.418000
0 0.513000 0.301000 0.542000 0.558000
0 0.510000 0.347000 0.712000 0.626000
0 0.464000 0.429062 0.564000 0.697941
0 0.598333 0.570000 0.576667 0.586667
0 0.481000 0.359000 0.610000 0.650000
0 0.373000 0.323000 0.506000 0.510000
0 0.226000 0.315000 0.252000 0.262000
0 0.261000 0.394000 0.438000 0.436000
0 0.733000 0.403000 0.446000 0.446000
0 0.470000 0.378000 0.512000 0.520000
0 0.491875 0.443750 0.551250 0.550000
0 0.497000 0.367000 0.422000 0.410000
0 0.377500 0.633750 0.245000 0.272500
0 0.661250 0.315000 0.267500 0.260000
0 0.514516 0.420968 0.835484 0.790323
0 0.574000 0.479000 0.180000 0.182000
0 0.330000 0.413333 0.600000 0.586667
0 0.515000 0.544000 0.546000 0.540000
0 0.206250 0.257500 0.332500 0.330000
0 0.726250 0.412500 0.487500 0.490000
0 0.206000 0.323000 0.340000 0.330000
0 0.457000 0.308000 0.262000 0.296000
0 0.678000 0.296000 0.256000 0.276000
0 0.848000 0.283000 0.248000 0.250000
0 0.531250 0.453750 0.682500 0.677500
0 0.451000 0.521042 0.494000 0.557114
0 0.505714 0.397143 0.680000 0.668571
0 0.526000 0.452522 0.272000 0.394659
0 0.490323 0.556452 0.612903 0.609677
0 0.480000 0.475930 0.428000 0.505470
0 0.301000 0.599000 0.318000 0.334000
0 0.704000 0.623000 0.348000 0.350000
0 0.639000 0.353704 0.602000 0.570370
0 0.697000 0.365000 0.546000 0.554000
0 0.474419 0.422093 0.646512 0.686047
0 0.228750 0.427500 0.412500 0.480000
0 0.707500 0.425000 0.405000 0.475000
fan
